<?xml version="1.0" encoding="UTF-8" standalone="no"?>
<!-- Created with Inkscape (http://www.inkscape.org/) -->

<svg
   xmlns:dc="http://purl.org/dc/elements/1.1/"
   xmlns:cc="http://creativecommons.org/ns#"
   xmlns:rdf="http://www.w3.org/1999/02/22-rdf-syntax-ns#"
   xmlns:svg="http://www.w3.org/2000/svg"
   xmlns="http://www.w3.org/2000/svg"
   xmlns:sodipodi="http://sodipodi.sourceforge.net/DTD/sodipodi-0.dtd"
   xmlns:inkscape="http://www.inkscape.org/namespaces/inkscape"
   width="77.785301mm"
   height="63.729542mm"
   viewBox="0 0 275.6172 225.81333"
   id="svg2"
   version="1.1"
   inkscape:version="0.91 r13725"
   sodipodi:docname="bodef14.svg">
  <defs
     id="defs4">
    <marker
       inkscape:isstock="true"
       style="overflow:visible"
       id="marker4683"
       refX="0"
       refY="0"
       orient="auto"
       inkscape:stockid="Arrow1Mend">
      <path
         inkscape:connector-curvature="0"
         transform="matrix(-0.4,0,0,-0.4,-4,0)"
         style="fill:#000000;fill-opacity:1;fill-rule:evenodd;stroke:#000000;stroke-width:1pt;stroke-opacity:1"
         d="M 0,0 5,-5 -12.5,0 5,5 0,0 Z"
         id="path4685" />
    </marker>
    <marker
       inkscape:stockid="Arrow1Mend"
       orient="auto"
       refY="0"
       refX="0"
       id="Arrow1Mend"
       style="overflow:visible"
       inkscape:isstock="true">
      <path
         id="path4285"
         d="M 0,0 5,-5 -12.5,0 5,5 0,0 Z"
         style="fill:#000000;fill-opacity:1;fill-rule:evenodd;stroke:#000000;stroke-width:1pt;stroke-opacity:1"
         transform="matrix(-0.4,0,0,-0.4,-4,0)"
         inkscape:connector-curvature="0" />
    </marker>
    <marker
       inkscape:stockid="Arrow1Mend"
       orient="auto"
       refY="0"
       refX="0"
       id="marker4692-1"
       style="overflow:visible"
       inkscape:isstock="true">
      <path
         id="path4694-8"
         d="M 0,0 5,-5 -12.5,0 5,5 0,0 Z"
         style="fill:#000000;fill-opacity:1;fill-rule:evenodd;stroke:#000000;stroke-width:1pt;stroke-opacity:1"
         transform="matrix(-0.4,0,0,-0.4,-4,0)"
         inkscape:connector-curvature="0" />
    </marker>
    <marker
       inkscape:isstock="true"
       style="overflow:visible"
       id="marker4683-3"
       refX="0"
       refY="0"
       orient="auto"
       inkscape:stockid="Arrow1Mend">
      <path
         inkscape:connector-curvature="0"
         transform="matrix(-0.4,0,0,-0.4,-4,0)"
         style="fill:#000000;fill-opacity:1;fill-rule:evenodd;stroke:#000000;stroke-width:1pt;stroke-opacity:1"
         d="M 0,0 5,-5 -12.5,0 5,5 0,0 Z"
         id="path4685-6" />
    </marker>
    <marker
       inkscape:isstock="true"
       style="overflow:visible"
       id="marker4683-5"
       refX="0"
       refY="0"
       orient="auto"
       inkscape:stockid="Arrow1Mend">
      <path
         inkscape:connector-curvature="0"
         transform="matrix(-0.4,0,0,-0.4,-4,0)"
         style="fill:#000000;fill-opacity:1;fill-rule:evenodd;stroke:#000000;stroke-width:1pt;stroke-opacity:1"
         d="M 0,0 5,-5 -12.5,0 5,5 0,0 Z"
         id="path4685-62" />
    </marker>
  </defs>
  <sodipodi:namedview
     id="base"
     pagecolor="#ffffff"
     bordercolor="#666666"
     borderopacity="1.0"
     inkscape:pageopacity="0.0"
     inkscape:pageshadow="2"
     inkscape:zoom="2.2343789"
     inkscape:cx="49.969273"
     inkscape:cy="104.10666"
     inkscape:document-units="px"
     inkscape:current-layer="layer1"
     showgrid="false"
     inkscape:window-width="1366"
     inkscape:window-height="705"
     inkscape:window-x="0"
     inkscape:window-y="30"
     inkscape:window-maximized="1"
     fit-margin-top="0"
     fit-margin-left="0"
     fit-margin-right="0"
     fit-margin-bottom="0" />
  <metadata
     id="metadata7">
    <rdf:RDF>
      <cc:Work
         rdf:about="">
        <dc:format>image/svg+xml</dc:format>
        <dc:type
           rdf:resource="http://purl.org/dc/dcmitype/StillImage" />
        <dc:title />
      </cc:Work>
    </rdf:RDF>
  </metadata>
  <g
     inkscape:label="Layer 1"
     inkscape:groupmode="layer"
     id="layer1"
     transform="translate(-636.43563,-354.54139)">
    <path
       style="fill:none;fill-rule:evenodd;stroke:#000000;stroke-width:1.41732287;stroke-linecap:butt;stroke-linejoin:miter;stroke-miterlimit:4;stroke-dasharray:none;stroke-opacity:1;marker-end:url(#marker4683)"
       d="m 668.87822,452.85241 235.28867,0"
       id="path4312-2"
       inkscape:connector-curvature="0" />
    <text
       xml:space="preserve"
       style="font-style:normal;font-weight:normal;font-size:6.45091248px;line-height:125%;font-family:sans-serif;letter-spacing:0px;word-spacing:0px;fill:#000000;fill-opacity:1;stroke:none;stroke-width:1px;stroke-linecap:butt;stroke-linejoin:miter;stroke-opacity:1"
       x="902.65765"
       y="467.11423"
       id="text4262-62-0"
       sodipodi:linespacing="125%"><tspan
         sodipodi:role="line"
         id="tspan4264-6-2"
         x="902.65765"
         y="467.11423"
         style="font-style:normal;font-variant:normal;font-weight:normal;font-stretch:normal;font-size:19.84896278px;font-family:Alfa-beta;-inkscape-font-specification:Alfa-beta">w</tspan></text>
    <path
       style="fill:none;fill-rule:evenodd;stroke:#000000;stroke-width:1.41732287;stroke-linecap:butt;stroke-linejoin:miter;stroke-miterlimit:4;stroke-dasharray:none;stroke-opacity:1;marker-end:url(#marker4683-3)"
       d="m 678.30081,580.35472 0,-223.10623"
       id="path4312-2-7"
       inkscape:connector-curvature="0" />
    <text
       xml:space="preserve"
       style="font-style:normal;font-weight:normal;font-size:6.45091248px;line-height:125%;font-family:sans-serif;letter-spacing:0px;word-spacing:0px;fill:#000000;fill-opacity:1;stroke:none;stroke-width:1px;stroke-linecap:butt;stroke-linejoin:miter;stroke-opacity:1"
       x="654.11969"
       y="459.24319"
       id="text4262-62-0-6-2-3"
       sodipodi:linespacing="125%"><tspan
         sodipodi:role="line"
         id="tspan4264-6-2-7-7-6"
         x="654.11969"
         y="459.24319"
         style="font-style:normal;font-variant:normal;font-weight:normal;font-stretch:normal;font-size:19.84896278px;font-family:Alfa-beta;-inkscape-font-specification:Alfa-beta">0</tspan></text>
    <path
       style="fill:none;fill-rule:evenodd;stroke:#000000;stroke-width:1.0629921;stroke-linecap:butt;stroke-linejoin:miter;stroke-miterlimit:4;stroke-dasharray:3.18897638, 3.18897638;stroke-dashoffset:0;stroke-opacity:1"
       d="m 807.03376,369.29485 0,207.11512"
       id="path4555"
       inkscape:connector-curvature="0" />
    <path
       style="fill:none;fill-rule:evenodd;stroke:#000000;stroke-width:1.0629921;stroke-linecap:butt;stroke-linejoin:miter;stroke-miterlimit:4;stroke-dasharray:3.18897638, 3.18897638;stroke-dashoffset:0;stroke-opacity:1"
       d="m 678.30081,369.29485 0,207.11512"
       id="path4555-7"
       inkscape:connector-curvature="0" />
    <path
       style="fill:none;fill-rule:evenodd;stroke:#000000;stroke-width:1.0629921;stroke-linecap:butt;stroke-linejoin:miter;stroke-miterlimit:4;stroke-dasharray:3.18897638, 3.18897638;stroke-dashoffset:0;stroke-opacity:1"
       d="m 742.66728,369.29485 0,207.11512"
       id="path4555-5"
       inkscape:connector-curvature="0" />
    <path
       style="fill:none;fill-rule:evenodd;stroke:#000000;stroke-width:1.0629921;stroke-linecap:butt;stroke-linejoin:miter;stroke-miterlimit:4;stroke-dasharray:3.18897638, 3.18897638;stroke-dashoffset:0;stroke-opacity:1"
       d="m 881.85835,532.85241 -207.11512,0"
       id="path4555-36"
       inkscape:connector-curvature="0" />
    <path
       style="fill:none;fill-rule:evenodd;stroke:#000000;stroke-width:1.0629921;stroke-linecap:butt;stroke-linejoin:miter;stroke-miterlimit:4;stroke-dasharray:3.18897638, 3.18897638;stroke-dashoffset:0;stroke-opacity:1"
       d="m 881.85835,572.85241 -207.11512,0"
       id="path4555-3-0"
       inkscape:connector-curvature="0" />
    <path
       style="fill:none;fill-rule:evenodd;stroke:#000000;stroke-width:1.0629921;stroke-linecap:butt;stroke-linejoin:miter;stroke-miterlimit:4;stroke-dasharray:3.18897638, 3.18897638;stroke-dashoffset:0;stroke-opacity:1"
       d="m 881.85835,492.85241 -207.11512,0"
       id="path4555-6-6"
       inkscape:connector-curvature="0" />
    <path
       style="fill:none;fill-rule:evenodd;stroke:#000000;stroke-width:1.0629921;stroke-linecap:butt;stroke-linejoin:miter;stroke-miterlimit:4;stroke-dasharray:3.18897638, 3.18897638;stroke-dashoffset:0;stroke-opacity:1"
       d="m 881.85835,372.85241 -207.11512,0"
       id="path4555-7-2"
       inkscape:connector-curvature="0" />
    <path
       style="fill:none;fill-rule:evenodd;stroke:#000000;stroke-width:1.0629921;stroke-linecap:butt;stroke-linejoin:miter;stroke-miterlimit:4;stroke-dasharray:3.18897638, 3.18897638;stroke-dashoffset:0;stroke-opacity:1"
       d="m 881.85835,452.85241 -207.11512,0"
       id="path4555-5-6"
       inkscape:connector-curvature="0" />
    <path
       style="fill:none;fill-rule:evenodd;stroke:#000000;stroke-width:1.0629921;stroke-linecap:butt;stroke-linejoin:miter;stroke-miterlimit:4;stroke-dasharray:3.18897638, 3.18897638;stroke-dashoffset:0;stroke-opacity:1"
       d="m 881.85835,412.85241 -207.11512,0"
       id="path4555-35-1"
       inkscape:connector-curvature="0" />
    <text
       xml:space="preserve"
       style="font-style:normal;font-weight:normal;font-size:6.45091248px;line-height:125%;font-family:sans-serif;letter-spacing:0px;word-spacing:0px;fill:#000000;fill-opacity:1;stroke:none;stroke-width:1px;stroke-linecap:butt;stroke-linejoin:miter;stroke-opacity:1"
       x="644.42786"
       y="419.8154"
       id="text4262-62-0-6-2-3-8"
       sodipodi:linespacing="125%"><tspan
         sodipodi:role="line"
         id="tspan4264-6-2-7-7-6-7"
         x="644.42786"
         y="419.8154"
         style="font-style:normal;font-variant:normal;font-weight:normal;font-stretch:normal;font-size:19.84896278px;font-family:Alfa-beta;-inkscape-font-specification:Alfa-beta">20</tspan></text>
    <text
       xml:space="preserve"
       style="font-style:normal;font-weight:normal;font-size:6.45091248px;line-height:125%;font-family:sans-serif;letter-spacing:0px;word-spacing:0px;fill:#000000;fill-opacity:1;stroke:none;stroke-width:1px;stroke-linecap:butt;stroke-linejoin:miter;stroke-opacity:1"
       x="644.0014"
       y="379.53574"
       id="text4262-62-0-6-2-3-9"
       sodipodi:linespacing="125%"><tspan
         sodipodi:role="line"
         id="tspan4264-6-2-7-7-6-2"
         x="644.0014"
         y="379.53574"
         style="font-style:normal;font-variant:normal;font-weight:normal;font-stretch:normal;font-size:19.84896278px;font-family:Alfa-beta;-inkscape-font-specification:Alfa-beta">40</tspan></text>
    <text
       xml:space="preserve"
       style="font-style:normal;font-weight:normal;font-size:6.45091248px;line-height:125%;font-family:sans-serif;letter-spacing:0px;word-spacing:0px;fill:#000000;fill-opacity:1;stroke:none;stroke-width:1px;stroke-linecap:butt;stroke-linejoin:miter;stroke-opacity:1"
       x="634.15442"
       y="499.47958"
       id="text4262-62-0-6-2-3-0"
       sodipodi:linespacing="125%"><tspan
         sodipodi:role="line"
         id="tspan4264-6-2-7-7-6-23"
         x="634.15442"
         y="499.47958"
         style="font-style:normal;font-variant:normal;font-weight:normal;font-stretch:normal;font-size:19.84896278px;font-family:Alfa-beta;-inkscape-font-specification:Alfa-beta">-20</tspan></text>
    <text
       xml:space="preserve"
       style="font-style:normal;font-weight:normal;font-size:6.45091248px;line-height:125%;font-family:sans-serif;letter-spacing:0px;word-spacing:0px;fill:#000000;fill-opacity:1;stroke:none;stroke-width:1px;stroke-linecap:butt;stroke-linejoin:miter;stroke-opacity:1"
       x="633.72803"
       y="539.31171"
       id="text4262-62-0-6-2-3-7"
       sodipodi:linespacing="125%"><tspan
         sodipodi:role="line"
         id="tspan4264-6-2-7-7-6-5"
         x="633.72803"
         y="539.31171"
         style="font-style:normal;font-variant:normal;font-weight:normal;font-stretch:normal;font-size:19.84896278px;font-family:Alfa-beta;-inkscape-font-specification:Alfa-beta">-40</tspan></text>
    <text
       xml:space="preserve"
       style="font-style:normal;font-weight:normal;font-size:6.45091248px;line-height:125%;font-family:sans-serif;letter-spacing:0px;word-spacing:0px;fill:#000000;fill-opacity:1;stroke:none;stroke-width:1px;stroke-linecap:butt;stroke-linejoin:miter;stroke-opacity:1"
       x="634.03815"
       y="579.1438"
       id="text4262-62-0-6-2-3-92"
       sodipodi:linespacing="125%"><tspan
         sodipodi:role="line"
         id="tspan4264-6-2-7-7-6-28"
         x="634.03815"
         y="579.1438"
         style="font-style:normal;font-variant:normal;font-weight:normal;font-stretch:normal;font-size:19.84896278px;font-family:Alfa-beta;-inkscape-font-specification:Alfa-beta">-60</tspan></text>
    <path
       style="fill:none;fill-rule:evenodd;stroke:#ff0000;stroke-width:1.41732264;stroke-linecap:round;stroke-linejoin:round;stroke-miterlimit:4;stroke-dasharray:none;stroke-opacity:1"
       d="m 668.65935,453.11299 93.78996,0 142.76028,88.16767"
       id="path5882"
       inkscape:connector-curvature="0"
       sodipodi:nodetypes="ccc" />
    <text
       xml:space="preserve"
       style="font-style:normal;font-weight:normal;font-size:6.45091248px;line-height:125%;font-family:sans-serif;letter-spacing:0px;word-spacing:0px;fill:#000000;fill-opacity:1;stroke:none;stroke-width:1px;stroke-linecap:butt;stroke-linejoin:miter;stroke-opacity:1"
       x="808.39697"
       y="450.90628"
       id="text4262-62-0-6-2-3-97-6"
       sodipodi:linespacing="125%"><tspan
         sodipodi:role="line"
         id="tspan4264-6-2-7-7-6-3-1"
         x="808.39697"
         y="450.90628"
         style="font-style:normal;font-variant:normal;font-weight:normal;font-stretch:normal;font-size:12.49999809px;font-family:Alfa-beta;-inkscape-font-specification:Alfa-beta">10</tspan></text>
    <text
       xml:space="preserve"
       style="font-style:normal;font-weight:normal;font-size:6.45091248px;line-height:125%;font-family:sans-serif;letter-spacing:0px;word-spacing:0px;fill:#000000;fill-opacity:1;stroke:none;stroke-width:1px;stroke-linecap:butt;stroke-linejoin:miter;stroke-opacity:1"
       x="745.1803"
       y="451.07935"
       id="text4262-62-0-6-2-3-97-2"
       sodipodi:linespacing="125%"><tspan
         sodipodi:role="line"
         id="tspan4264-6-2-7-7-6-3-9"
         x="745.1803"
         y="451.07935"
         style="font-style:normal;font-variant:normal;font-weight:normal;font-stretch:normal;font-size:12.49999809px;font-family:Alfa-beta;-inkscape-font-specification:Alfa-beta">1</tspan></text>
    <path
       style="fill:none;fill-rule:evenodd;stroke:#000000;stroke-width:1.0629921;stroke-linecap:butt;stroke-linejoin:miter;stroke-miterlimit:4;stroke-dasharray:3.18897638, 3.18897638;stroke-dashoffset:0;stroke-opacity:1"
       d="m 871.40022,369.29486 0,207.1151"
       id="path4555-3"
       inkscape:connector-curvature="0" />
    <text
       xml:space="preserve"
       style="font-style:normal;font-weight:normal;font-size:6.45091248px;line-height:125%;font-family:sans-serif;letter-spacing:0px;word-spacing:0px;fill:#000000;fill-opacity:1;stroke:none;stroke-width:1px;stroke-linecap:butt;stroke-linejoin:miter;stroke-opacity:1"
       x="759.65161"
       y="451.07935"
       id="text4262-62-0-6-2-3-97-2-3"
       sodipodi:linespacing="125%"><tspan
         sodipodi:role="line"
         id="tspan4264-6-2-7-7-6-3-9-6"
         x="759.65161"
         y="451.07935"
         style="font-style:normal;font-variant:normal;font-weight:normal;font-stretch:normal;font-size:12.49999809px;font-family:Alfa-beta;-inkscape-font-specification:Alfa-beta">2</tspan></text>
  </g>
</svg>
