<?xml version="1.0" encoding="UTF-8" standalone="no"?>
<!-- Created with Inkscape (http://www.inkscape.org/) -->

<svg
   width="90.915703mm"
   height="64.162033mm"
   viewBox="0 0 322.14227 227.34578"
   id="svg2"
   version="1.1"
   inkscape:version="1.1.2 (0a00cf5339, 2022-02-04)"
   sodipodi:docname="model_fig9.svg"
   xmlns:inkscape="http://www.inkscape.org/namespaces/inkscape"
   xmlns:sodipodi="http://sodipodi.sourceforge.net/DTD/sodipodi-0.dtd"
   xmlns="http://www.w3.org/2000/svg"
   xmlns:svg="http://www.w3.org/2000/svg"
   xmlns:rdf="http://www.w3.org/1999/02/22-rdf-syntax-ns#"
   xmlns:cc="http://creativecommons.org/ns#"
   xmlns:dc="http://purl.org/dc/elements/1.1/">
  <defs
     id="defs4">
    <marker
       inkscape:isstock="true"
       style="overflow:visible"
       id="marker1014"
       refX="0"
       refY="0"
       orient="auto"
       inkscape:stockid="StopL">
      <path
         inkscape:connector-curvature="0"
         transform="scale(0.8)"
         style="fill:none;fill-opacity:0.75;fill-rule:evenodd;stroke:#000000;stroke-width:1pt;stroke-opacity:1"
         d="M 0,5.65 V -5.65"
         id="path1012" />
    </marker>
    <marker
       inkscape:isstock="true"
       style="overflow:visible"
       id="marker1793"
       refX="0"
       refY="0"
       orient="auto"
       inkscape:stockid="Arrow1Mend">
      <path
         inkscape:connector-curvature="0"
         transform="matrix(-0.4,0,0,-0.4,-4,0)"
         style="fill:#000000;fill-opacity:1;fill-rule:evenodd;stroke:#000000;stroke-width:1pt;stroke-opacity:1"
         d="M 0,0 5,-5 -12.5,0 5,5 Z"
         id="path1791" />
    </marker>
    <marker
       inkscape:stockid="Arrow1Mend"
       orient="auto"
       refY="0"
       refX="0"
       id="marker1373"
       style="overflow:visible"
       inkscape:isstock="true"
       inkscape:collect="always">
      <path
         id="path1371"
         d="M 0,0 5,-5 -12.5,0 5,5 Z"
         style="fill:#000000;fill-opacity:1;fill-rule:evenodd;stroke:#000000;stroke-width:1pt;stroke-opacity:1"
         transform="matrix(-0.4,0,0,-0.4,-4,0)"
         inkscape:connector-curvature="0" />
    </marker>
    <marker
       inkscape:stockid="Arrow1Mstart"
       orient="auto"
       refY="0"
       refX="0"
       id="Arrow1Mstart"
       style="overflow:visible"
       inkscape:isstock="true">
      <path
         id="path2255"
         d="M 0,0 5,-5 -12.5,0 5,5 Z"
         style="fill:#000000;fill-opacity:1;fill-rule:evenodd;stroke:#000000;stroke-width:1pt;stroke-opacity:1"
         transform="matrix(0.4,0,0,0.4,4,0)"
         inkscape:connector-curvature="0" />
    </marker>
    <marker
       inkscape:stockid="StopM"
       orient="auto"
       refY="0"
       refX="0"
       id="StopM"
       style="overflow:visible"
       inkscape:isstock="true">
      <path
         id="path2422"
         d="M 0,5.65 V -5.65"
         style="fill:none;fill-opacity:0.75;fill-rule:evenodd;stroke:#000000;stroke-width:1pt;stroke-opacity:1"
         transform="scale(0.4)"
         inkscape:connector-curvature="0" />
    </marker>
    <marker
       inkscape:stockid="DotM"
       orient="auto"
       refY="0"
       refX="0"
       id="marker1839"
       style="overflow:visible"
       inkscape:isstock="true">
      <path
         id="path1837"
         d="m -2.5,-1 c 0,2.76 -2.24,5 -5,5 -2.76,0 -5,-2.24 -5,-5 0,-2.76 2.24,-5 5,-5 2.76,0 5,2.24 5,5 z"
         style="fill:#000000;fill-opacity:1;fill-rule:evenodd;stroke:#000000;stroke-width:1pt;stroke-opacity:1"
         transform="matrix(0.4,0,0,0.4,2.96,0.4)"
         inkscape:connector-curvature="0" />
    </marker>
    <marker
       inkscape:stockid="Arrow1Send"
       orient="auto"
       refY="0"
       refX="0"
       id="Arrow1Send"
       style="overflow:visible"
       inkscape:isstock="true">
      <path
         id="path4778"
         d="M 0,0 5,-5 -12.5,0 5,5 Z"
         style="fill:#000000;fill-opacity:1;fill-rule:evenodd;stroke:#000000;stroke-width:1pt;stroke-opacity:1"
         transform="matrix(-0.2,0,0,-0.2,-1.2,0)"
         inkscape:connector-curvature="0" />
    </marker>
    <marker
       inkscape:stockid="DotM"
       orient="auto"
       refY="0"
       refX="0"
       id="DotM"
       style="overflow:visible"
       inkscape:isstock="true">
      <path
         id="path4827"
         d="m -2.5,-1 c 0,2.76 -2.24,5 -5,5 -2.76,0 -5,-2.24 -5,-5 0,-2.76 2.24,-5 5,-5 2.76,0 5,2.24 5,5 z"
         style="fill:#000000;fill-opacity:1;fill-rule:evenodd;stroke:#000000;stroke-width:1pt;stroke-opacity:1"
         transform="matrix(0.4,0,0,0.4,2.96,0.4)"
         inkscape:connector-curvature="0" />
    </marker>
    <marker
       inkscape:isstock="true"
       style="overflow:visible"
       id="marker4683"
       refX="0"
       refY="0"
       orient="auto"
       inkscape:stockid="Arrow1Mend">
      <path
         inkscape:connector-curvature="0"
         transform="matrix(-0.4,0,0,-0.4,-4,0)"
         style="fill:#000000;fill-opacity:1;fill-rule:evenodd;stroke:#000000;stroke-width:1pt;stroke-opacity:1"
         d="M 0,0 5,-5 -12.5,0 5,5 Z"
         id="path4685" />
    </marker>
    <marker
       inkscape:stockid="Arrow1Mend"
       orient="auto"
       refY="0"
       refX="0"
       id="Arrow1Mend"
       style="overflow:visible"
       inkscape:isstock="true">
      <path
         id="path4285"
         d="M 0,0 5,-5 -12.5,0 5,5 Z"
         style="fill:#000000;fill-opacity:1;fill-rule:evenodd;stroke:#000000;stroke-width:1pt;stroke-opacity:1"
         transform="matrix(-0.4,0,0,-0.4,-4,0)"
         inkscape:connector-curvature="0" />
    </marker>
    <marker
       inkscape:stockid="Arrow1Mend"
       orient="auto"
       refY="0"
       refX="0"
       id="marker4692-1"
       style="overflow:visible"
       inkscape:isstock="true">
      <path
         id="path4694-8"
         d="M 0,0 5,-5 -12.5,0 5,5 Z"
         style="fill:#000000;fill-opacity:1;fill-rule:evenodd;stroke:#000000;stroke-width:1pt;stroke-opacity:1"
         transform="matrix(-0.4,0,0,-0.4,-4,0)"
         inkscape:connector-curvature="0" />
    </marker>
    <marker
       inkscape:stockid="DotM"
       orient="auto"
       refY="0"
       refX="0"
       id="DotM-3"
       style="overflow:visible"
       inkscape:isstock="true">
      <path
         inkscape:connector-curvature="0"
         id="path4827-6"
         d="m -2.5,-1 c 0,2.76 -2.24,5 -5,5 -2.76,0 -5,-2.24 -5,-5 0,-2.76 2.24,-5 5,-5 2.76,0 5,2.24 5,5 z"
         style="fill:#000000;fill-opacity:1;fill-rule:evenodd;stroke:#000000;stroke-width:1pt;stroke-opacity:1"
         transform="matrix(0.4,0,0,0.4,2.96,0.4)" />
    </marker>
    <marker
       inkscape:stockid="StopM"
       orient="auto"
       refY="0"
       refX="0"
       id="StopM-2"
       style="overflow:visible"
       inkscape:isstock="true">
      <path
         inkscape:connector-curvature="0"
         id="path2422-9"
         d="M 0,5.65 V -5.65"
         style="fill:none;fill-opacity:0.75;fill-rule:evenodd;stroke:#000000;stroke-width:1pt;stroke-opacity:1"
         transform="scale(0.4)" />
    </marker>
    <marker
       inkscape:isstock="true"
       style="overflow:visible"
       id="marker3108-1"
       refX="0"
       refY="0"
       orient="auto"
       inkscape:stockid="Arrow1Mend">
      <path
         inkscape:connector-curvature="0"
         transform="matrix(-0.4,0,0,-0.4,-4,0)"
         style="fill:#000000;fill-opacity:1;fill-rule:evenodd;stroke:#000000;stroke-width:1pt;stroke-opacity:1"
         d="M 0,0 5,-5 -12.5,0 5,5 Z"
         id="path3106-2" />
    </marker>
    <marker
       inkscape:stockid="Arrow1Mend"
       orient="auto"
       refY="0"
       refX="0"
       id="marker3108"
       style="overflow:visible"
       inkscape:isstock="true">
      <path
         id="path3106"
         d="M 0,0 5,-5 -12.5,0 5,5 Z"
         style="fill:#000000;fill-opacity:1;fill-rule:evenodd;stroke:#000000;stroke-width:1pt;stroke-opacity:1"
         transform="matrix(-0.4,0,0,-0.4,-4,0)"
         inkscape:connector-curvature="0" />
    </marker>
    <marker
       inkscape:isstock="true"
       style="overflow:visible"
       id="Arrow1Mstart-5"
       refX="0"
       refY="0"
       orient="auto"
       inkscape:stockid="Arrow1Mstart">
      <path
         inkscape:connector-curvature="0"
         transform="matrix(0.4,0,0,0.4,4,0)"
         style="fill:#000000;fill-opacity:1;fill-rule:evenodd;stroke:#000000;stroke-width:1pt;stroke-opacity:1"
         d="M 0,0 5,-5 -12.5,0 5,5 Z"
         id="path2255-6" />
    </marker>
    <marker
       inkscape:isstock="true"
       style="overflow:visible"
       id="StopL"
       refX="0"
       refY="0"
       orient="auto"
       inkscape:stockid="StopL">
      <path
         inkscape:connector-curvature="0"
         transform="scale(0.8)"
         style="fill:none;fill-opacity:0.75;fill-rule:evenodd;stroke:#000000;stroke-width:1pt;stroke-opacity:1"
         d="M 0,5.65 V -5.65"
         id="path2419" />
    </marker>
    <marker
       inkscape:isstock="true"
       style="overflow:visible"
       id="StopM-29"
       refX="0"
       refY="0"
       orient="auto"
       inkscape:stockid="StopM">
      <path
         inkscape:connector-curvature="0"
         transform="scale(0.4)"
         style="fill:none;fill-opacity:0.75;fill-rule:evenodd;stroke:#000000;stroke-width:1pt;stroke-opacity:1"
         d="M 0,5.65 V -5.65"
         id="path2422-1" />
    </marker>
    <marker
       inkscape:isstock="true"
       style="overflow:visible"
       id="marker1839-2"
       refX="0"
       refY="0"
       orient="auto"
       inkscape:stockid="DotM">
      <path
         inkscape:connector-curvature="0"
         transform="matrix(0.4,0,0,0.4,2.96,0.4)"
         style="fill:#000000;fill-opacity:1;fill-rule:evenodd;stroke:#000000;stroke-width:1pt;stroke-opacity:1"
         d="m -2.5,-1 c 0,2.76 -2.24,5 -5,5 -2.76,0 -5,-2.24 -5,-5 0,-2.76 2.24,-5 5,-5 2.76,0 5,2.24 5,5 z"
         id="path1837-7" />
    </marker>
    <marker
       inkscape:isstock="true"
       style="overflow:visible"
       id="Arrow1Send-0"
       refX="0"
       refY="0"
       orient="auto"
       inkscape:stockid="Arrow1Send">
      <path
         inkscape:connector-curvature="0"
         transform="matrix(-0.2,0,0,-0.2,-1.2,0)"
         style="fill:#000000;fill-opacity:1;fill-rule:evenodd;stroke:#000000;stroke-width:1pt;stroke-opacity:1"
         d="M 0,0 5,-5 -12.5,0 5,5 Z"
         id="path4778-9" />
    </marker>
    <marker
       inkscape:isstock="true"
       style="overflow:visible"
       id="DotM-36"
       refX="0"
       refY="0"
       orient="auto"
       inkscape:stockid="DotM">
      <path
         inkscape:connector-curvature="0"
         transform="matrix(0.4,0,0,0.4,2.96,0.4)"
         style="fill:#000000;fill-opacity:1;fill-rule:evenodd;stroke:#000000;stroke-width:1pt;stroke-opacity:1"
         d="m -2.5,-1 c 0,2.76 -2.24,5 -5,5 -2.76,0 -5,-2.24 -5,-5 0,-2.76 2.24,-5 5,-5 2.76,0 5,2.24 5,5 z"
         id="path4827-0" />
    </marker>
    <marker
       inkscape:stockid="Arrow1Mend"
       orient="auto"
       refY="0"
       refX="0"
       id="marker4683-6"
       style="overflow:visible"
       inkscape:isstock="true">
      <path
         id="path4685-2"
         d="M 0,0 5,-5 -12.5,0 5,5 Z"
         style="fill:#000000;fill-opacity:1;fill-rule:evenodd;stroke:#000000;stroke-width:1pt;stroke-opacity:1"
         transform="matrix(-0.4,0,0,-0.4,-4,0)"
         inkscape:connector-curvature="0" />
    </marker>
    <marker
       inkscape:isstock="true"
       style="overflow:visible"
       id="Arrow1Mend-6"
       refX="0"
       refY="0"
       orient="auto"
       inkscape:stockid="Arrow1Mend">
      <path
         inkscape:connector-curvature="0"
         transform="matrix(-0.4,0,0,-0.4,-4,0)"
         style="fill:#000000;fill-opacity:1;fill-rule:evenodd;stroke:#000000;stroke-width:1pt;stroke-opacity:1"
         d="M 0,0 5,-5 -12.5,0 5,5 Z"
         id="path4285-1" />
    </marker>
    <marker
       inkscape:isstock="true"
       style="overflow:visible"
       id="marker4692-1-8"
       refX="0"
       refY="0"
       orient="auto"
       inkscape:stockid="Arrow1Mend">
      <path
         inkscape:connector-curvature="0"
         transform="matrix(-0.4,0,0,-0.4,-4,0)"
         style="fill:#000000;fill-opacity:1;fill-rule:evenodd;stroke:#000000;stroke-width:1pt;stroke-opacity:1"
         d="M 0,0 5,-5 -12.5,0 5,5 Z"
         id="path4694-8-7" />
    </marker>
    <marker
       inkscape:isstock="true"
       style="overflow:visible"
       id="DotM-3-9"
       refX="0"
       refY="0"
       orient="auto"
       inkscape:stockid="DotM">
      <path
         transform="matrix(0.4,0,0,0.4,2.96,0.4)"
         style="fill:#000000;fill-opacity:1;fill-rule:evenodd;stroke:#000000;stroke-width:1pt;stroke-opacity:1"
         d="m -2.5,-1 c 0,2.76 -2.24,5 -5,5 -2.76,0 -5,-2.24 -5,-5 0,-2.76 2.24,-5 5,-5 2.76,0 5,2.24 5,5 z"
         id="path4827-6-2"
         inkscape:connector-curvature="0" />
    </marker>
    <marker
       inkscape:isstock="true"
       style="overflow:visible"
       id="StopM-2-0"
       refX="0"
       refY="0"
       orient="auto"
       inkscape:stockid="StopM">
      <path
         transform="scale(0.4)"
         style="fill:none;fill-opacity:0.75;fill-rule:evenodd;stroke:#000000;stroke-width:1pt;stroke-opacity:1"
         d="M 0,5.65 V -5.65"
         id="path2422-9-2"
         inkscape:connector-curvature="0" />
    </marker>
    <marker
       inkscape:stockid="Arrow1Mend"
       orient="auto"
       refY="0"
       refX="0"
       id="marker3108-1-3"
       style="overflow:visible"
       inkscape:isstock="true">
      <path
         id="path3106-2-7"
         d="M 0,0 5,-5 -12.5,0 5,5 Z"
         style="fill:#000000;fill-opacity:1;fill-rule:evenodd;stroke:#000000;stroke-width:1pt;stroke-opacity:1"
         transform="matrix(-0.4,0,0,-0.4,-4,0)"
         inkscape:connector-curvature="0" />
    </marker>
    <marker
       inkscape:stockid="Arrow1Mend"
       orient="auto"
       refY="0"
       refX="0"
       id="marker6265"
       style="overflow:visible"
       inkscape:isstock="true">
      <path
         id="path4772"
         d="M 0,0 5,-5 -12.5,0 5,5 Z"
         style="fill:#000000;fill-opacity:1;fill-rule:evenodd;stroke:#000000;stroke-width:1pt;stroke-opacity:1"
         transform="matrix(-0.4,0,0,-0.4,-4,0)"
         inkscape:connector-curvature="0" />
    </marker>
    <marker
       inkscape:stockid="Arrow1Send"
       orient="auto"
       refY="0"
       refX="0"
       id="Arrow1Send-7"
       style="overflow:visible"
       inkscape:isstock="true">
      <path
         id="path4778-5"
         d="M 0,0 5,-5 -12.5,0 5,5 Z"
         style="fill:#000000;fill-opacity:1;fill-rule:evenodd;stroke:#000000;stroke-width:1pt;stroke-opacity:1"
         transform="matrix(-0.2,0,0,-0.2,-1.2,0)"
         inkscape:connector-curvature="0" />
    </marker>
    <marker
       inkscape:stockid="DotM"
       orient="auto"
       refY="0"
       refX="0"
       id="DotM-35"
       style="overflow:visible"
       inkscape:isstock="true">
      <path
         id="path4827-62"
         d="m -2.5,-1 c 0,2.76 -2.24,5 -5,5 -2.76,0 -5,-2.24 -5,-5 0,-2.76 2.24,-5 5,-5 2.76,0 5,2.24 5,5 z"
         style="fill:#000000;fill-opacity:1;fill-rule:evenodd;stroke:#000000;stroke-width:1pt;stroke-opacity:1"
         transform="matrix(0.4,0,0,0.4,2.96,0.4)"
         inkscape:connector-curvature="0" />
    </marker>
    <marker
       inkscape:isstock="true"
       style="overflow:visible"
       id="marker4683-9"
       refX="0"
       refY="0"
       orient="auto"
       inkscape:stockid="Arrow1Mend">
      <path
         inkscape:connector-curvature="0"
         transform="matrix(-0.4,0,0,-0.4,-4,0)"
         style="fill:#000000;fill-opacity:1;fill-rule:evenodd;stroke:#000000;stroke-width:1pt;stroke-opacity:1"
         d="M 0,0 5,-5 -12.5,0 5,5 Z"
         id="path4685-1" />
    </marker>
    <marker
       inkscape:stockid="Arrow1Mend"
       orient="auto"
       refY="0"
       refX="0"
       id="Arrow1Mend-2"
       style="overflow:visible"
       inkscape:isstock="true">
      <path
         id="path4285-7"
         d="M 0,0 5,-5 -12.5,0 5,5 Z"
         style="fill:#000000;fill-opacity:1;fill-rule:evenodd;stroke:#000000;stroke-width:1pt;stroke-opacity:1"
         transform="matrix(-0.4,0,0,-0.4,-4,0)"
         inkscape:connector-curvature="0" />
    </marker>
    <marker
       inkscape:stockid="Arrow1Mend"
       orient="auto"
       refY="0"
       refX="0"
       id="marker4692-1-0"
       style="overflow:visible"
       inkscape:isstock="true">
      <path
         id="path4694-8-9"
         d="M 0,0 5,-5 -12.5,0 5,5 Z"
         style="fill:#000000;fill-opacity:1;fill-rule:evenodd;stroke:#000000;stroke-width:1pt;stroke-opacity:1"
         transform="matrix(-0.4,0,0,-0.4,-4,0)"
         inkscape:connector-curvature="0" />
    </marker>
    <marker
       inkscape:stockid="DotM"
       orient="auto"
       refY="0"
       refX="0"
       id="DotM-3-3"
       style="overflow:visible"
       inkscape:isstock="true">
      <path
         inkscape:connector-curvature="0"
         id="path4827-6-6"
         d="m -2.5,-1 c 0,2.76 -2.24,5 -5,5 -2.76,0 -5,-2.24 -5,-5 0,-2.76 2.24,-5 5,-5 2.76,0 5,2.24 5,5 z"
         style="fill:#000000;fill-opacity:1;fill-rule:evenodd;stroke:#000000;stroke-width:1pt;stroke-opacity:1"
         transform="matrix(0.4,0,0,0.4,2.96,0.4)" />
    </marker>
  </defs>
  <sodipodi:namedview
     id="base"
     pagecolor="#ffffff"
     bordercolor="#666666"
     borderopacity="1.0"
     inkscape:pageopacity="0.0"
     inkscape:pageshadow="2"
     inkscape:zoom="2.1892789"
     inkscape:cx="185.44919"
     inkscape:cy="116.93348"
     inkscape:document-units="px"
     inkscape:current-layer="layer1"
     showgrid="false"
     inkscape:window-width="2580"
     inkscape:window-height="1052"
     inkscape:window-x="1920"
     inkscape:window-y="0"
     inkscape:window-maximized="1"
     fit-margin-top="0"
     fit-margin-left="0"
     fit-margin-right="0"
     fit-margin-bottom="0"
     inkscape:pagecheckerboard="0" />
  <metadata
     id="metadata7">
    <rdf:RDF>
      <cc:Work
         rdf:about="">
        <dc:format>image/svg+xml</dc:format>
        <dc:type
           rdf:resource="http://purl.org/dc/dcmitype/StillImage" />
      </cc:Work>
    </rdf:RDF>
  </metadata>
  <g
     inkscape:label="Layer 1"
     inkscape:groupmode="layer"
     id="layer1"
     transform="translate(-413.43318,-342.54286)">
    <g
       id="g3394">
      <path
         id="rect3088"
         style="fill:#ffffff;stroke:#ffffff;stroke-width:0.65;stroke-miterlimit:10"
         d="M 413.75818,342.86786 H 735.25043 V 569.56364 H 413.75818 Z" />
      <path
         d="m 431.12661,431.58127 h -4.13541 l 0.0122,-1.39874 q 2.06771,-0.0608 3.06507,-1.19197 0.98521,-1.14332 0.98521,-3.46645 0,-2.16502 -0.85141,-3.29617 -0.86357,-1.14332 -2.50558,-1.14332 -1.3136,0 -2.01905,0.69329 -0.70546,0.68112 -1.37442,2.89479 l -0.71762,2.39611 q -0.79059,2.60288 -1.9704,3.67322 -1.17981,1.05818 -3.23536,1.05818 -2.31096,0 -3.58808,-1.642 -1.27711,-1.64201 -1.27711,-4.60978 0,-1.26495 0.27975,-2.77316 0.26758,-1.50821 0.79059,-3.21103 h 3.86783 v 1.37442 q -1.92175,0.20677 -2.77316,1.28928 -0.86357,1.07034 -0.86357,3.27184 0,1.92175 0.79059,2.93128 0.77843,0.99737 2.27448,0.99737 1.30144,0 2.04338,-0.75411 0.74194,-0.7541 1.47172,-3.19887 l 0.66897,-2.25015 q 0.74194,-2.46908 1.89742,-3.5151 1.14333,-1.05818 3.07724,-1.05818 2.63937,0 3.9773,1.69065 1.33793,1.69066 1.33793,5.03548 0,1.49605 -0.30408,3.05291 -0.30407,1.5447 -0.92439,3.15021 z"
         style="font-size:24.9098px;line-height:1.25;font-family:'DejaVu Serif';-inkscape-font-specification:'DejaVu Serif';letter-spacing:0px;word-spacing:0px;stroke-width:0.622746"
         id="path3171" />
      <path
         d="m 420.37453,414.13955 v 1.9704 h -1.30144 v -1.9704 h -4.01378 v -2.25015 h 4.01378 v -4.2084 h 1.30144 v 4.2084 h 8.21002 q 1.642,0 2.1042,-0.31624 0.46219,-0.31624 0.46219,-1.16765 0,-0.87573 -0.51084,-1.27711 -0.52301,-0.40138 -1.6785,-0.42571 v -1.69065 q 1.76364,0.0973 2.57856,0.96087 0.81492,0.86358 0.81492,2.62721 0,1.93392 -0.85141,2.73667 -0.86357,0.80276 -2.91912,0.80276 z"
         style="font-size:24.9098px;line-height:1.25;font-family:'DejaVu Serif';-inkscape-font-specification:'DejaVu Serif';letter-spacing:0px;word-spacing:0px;stroke-width:0.622746"
         id="path3173" />
      <path
         d="m 431.15094,399.32503 q 0,-1.80012 -1.42307,-2.71235 -1.42307,-0.92438 -4.19623,-0.92438 -2.77316,0 -4.18407,0.92438 -1.42307,0.91223 -1.42307,2.71235 0,1.80012 1.42307,2.72451 1.41091,0.91222 4.18407,0.91222 2.77316,0 4.19623,-0.92438 1.42307,-0.92439 1.42307,-2.71235 z m 1.20414,0 q 0,2.82181 -1.86094,4.53679 -1.8731,1.71499 -4.9625,1.71499 -3.0894,0 -4.95034,-1.70282 -1.86093,-1.71498 -1.86093,-4.54896 0,-2.83398 1.86093,-4.53679 1.86094,-1.71499 4.95034,-1.71499 3.0894,0 4.9625,1.71499 1.86094,1.70281 1.86094,4.53679 z"
         style="font-size:24.9098px;line-height:1.25;font-family:'DejaVu Serif';-inkscape-font-specification:'DejaVu Serif';letter-spacing:0px;word-spacing:0px;stroke-width:0.622746"
         id="path3175" />
      <path
         d="m 419.04877,379.9129 h 3.23535 v 1.28928 q -0.96087,0.0608 -1.43523,0.53517 -0.47436,0.47435 -0.47436,1.38658 0,1.65416 1.14332,2.54206 1.14333,0.87574 3.28401,0.87574 h 5.91121 v -2.59072 h 1.28928 v 6.84776 h -1.28928 v -2.01905 h -10.36286 v 2.14068 h -1.27712 v -4.37867 h 2.29881 q -1.35009,-0.6568 -1.99473,-1.69066 -0.6568,-1.03385 -0.6568,-2.51774 0,-0.54733 0.0851,-1.14332 0.0851,-0.60815 0.24326,-1.27711 z"
         style="font-size:24.9098px;line-height:1.25;font-family:'DejaVu Serif';-inkscape-font-specification:'DejaVu Serif';letter-spacing:0px;word-spacing:0px;stroke-width:0.622746"
         id="path3177" />
      <path
         d="m 425.7749,366.41199 v 9.64525 h 0.0973 q 2.61505,0 3.95297,-0.98521 1.32577,-0.9852 1.32577,-2.90695 0,-1.47172 -0.76627,-2.40827 -0.77843,-0.94872 -2.2988,-1.32577 v -1.80012 q 2.12852,0.53517 3.19886,1.98257 1.07035,1.43523 1.07035,3.78269 0,2.83397 -1.86094,4.56112 -1.8731,1.71498 -4.9625,1.71498 -3.06507,0 -4.93817,-1.69066 -1.8731,-1.69065 -1.8731,-4.43949 0,-2.93128 1.81228,-4.5003 1.80012,-1.56903 5.24225,-1.62984 z m -1.28928,2.63936 q -2.26231,0.073 -3.40563,0.96088 -1.15549,0.87574 -1.15549,2.5299 0,1.5447 1.15549,2.4326 1.15548,0.8879 3.40563,1.08251 z"
         style="font-size:24.9098px;line-height:1.25;font-family:'DejaVu Serif';-inkscape-font-specification:'DejaVu Serif';letter-spacing:0px;word-spacing:0px;stroke-width:0.622746"
         id="path3179" />
      <path
         d="m 419.04877,353.26379 h 3.23535 v 1.28928 q -0.96087,0.0608 -1.43523,0.53517 -0.47436,0.47436 -0.47436,1.38658 0,1.65417 1.14332,2.54206 1.14333,0.87574 3.28401,0.87574 h 5.91121 v -2.59072 h 1.28928 v 6.84777 h -1.28928 v -2.01906 h -10.36286 v 2.14069 h -1.27712 v -4.37868 h 2.29881 q -1.35009,-0.6568 -1.99473,-1.69066 -0.6568,-1.03385 -0.6568,-2.51773 0,-0.54734 0.0851,-1.14333 0.0851,-0.60814 0.24326,-1.27711 z"
         style="font-size:24.9098px;line-height:1.25;font-family:'DejaVu Serif';-inkscape-font-specification:'DejaVu Serif';letter-spacing:0px;word-spacing:0px;stroke-width:0.622746"
         id="path3181" />
      <path
         d="m 488.72997,365.06238 v -1.28928 h 2.32313 v -15.42267 h -5.33955 v 2.83398 h -1.49605 v -4.28137 h 16.12813 v 4.28137 h -1.49605 v -2.83398 h -5.33955 v 15.42267 h 2.32313 v 1.28928 z"
         style="font-size:24.9098px;line-height:1.25;font-family:'DejaVu Serif';-inkscape-font-specification:'DejaVu Serif';letter-spacing:0px;word-spacing:0px;stroke-width:0.622746"
         id="path3184" />
      <path
         d="m 508.53132,368.94237 q -2.95561,-1.32576 -4.46382,-4.19623 -1.50821,-2.88263 -1.50821,-7.20049 0,-4.33002 1.50821,-7.20049 1.50821,-2.88263 4.46382,-4.20839 v 1.19197 q -1.8731,1.28928 -2.68802,3.63673 -0.81492,2.3353 -0.81492,6.58018 0,4.23272 0.81492,6.58018 0.81492,2.33529 2.68802,3.62457 z"
         style="font-size:24.9098px;line-height:1.25;font-family:'DejaVu Serif';-inkscape-font-specification:'DejaVu Serif';letter-spacing:0px;word-spacing:0px;stroke-width:0.622746"
         id="path3186" />
      <path
         d="m 513.63977,353.43456 h -1.9704 l 0.25542,-1.30144 h 1.9704 l 0.77843,-4.01378 h 2.25016 l -0.77843,4.01378 h 4.20839 l -0.25542,1.30144 h -4.2084 l -1.59335,8.21002 q -0.18244,0.96087 -0.18244,1.52037 0,0.38922 0.0851,0.58383 0.23109,0.46219 1.0825,0.46219 0.87574,0 1.37442,-0.51085 0.51085,-0.52301 0.75411,-1.67849 h 1.69065 q -0.43787,1.76363 -1.45956,2.57855 -1.02169,0.81492 -2.78532,0.81492 -1.93392,0 -2.57855,-0.86357 -0.38922,-0.52301 -0.38922,-1.49605 0,-0.62031 0.15812,-1.4109 z"
         style="font-style:italic;font-size:24.9098px;line-height:1.25;font-family:'DejaVu Serif';-inkscape-font-specification:'DejaVu Serif Italic';letter-spacing:0px;word-spacing:0px;stroke-width:0.622746"
         id="path3188" />
      <path
         d="m 522.08089,368.94237 v -1.19197 q 1.8731,-1.28928 2.68802,-3.62457 0.82708,-2.34746 0.82708,-6.58018 0,-4.24488 -0.82708,-6.58018 -0.81492,-2.34745 -2.68802,-3.63673 v -1.19197 q 2.96777,1.32576 4.47598,4.20839 1.50821,2.87047 1.50821,7.20049 0,4.31786 -1.50821,7.20049 -1.50821,2.87047 -4.47598,4.19623 z"
         style="font-size:24.9098px;line-height:1.25;font-family:'DejaVu Serif';-inkscape-font-specification:'DejaVu Serif';letter-spacing:0px;word-spacing:0px;stroke-width:0.622746"
         id="path3190" />
      <path
         inkscape:connector-curvature="0"
         id="path2894"
         d="m 690.75569,358.32494 -19.08217,8.42248"
         style="fill:none;stroke:#000000;stroke-width:2.25;stroke-linecap:butt;stroke-linejoin:miter;stroke-miterlimit:4;stroke-dasharray:none;stroke-opacity:1" />
      <path
         inkscape:connector-curvature="0"
         id="path2894-3"
         d="m 690.75569,365.82557 -19.08217,8.42248"
         style="fill:none;stroke:#000000;stroke-width:2.25;stroke-linecap:butt;stroke-linejoin:miter;stroke-miterlimit:4;stroke-dasharray:none;stroke-opacity:1" />
      <path
         inkscape:connector-curvature="0"
         id="path2894-5"
         d="m 690.75569,373.3262 -19.08217,8.42248"
         style="fill:none;stroke:#000000;stroke-width:2.25;stroke-linecap:butt;stroke-linejoin:miter;stroke-miterlimit:4;stroke-dasharray:none;stroke-opacity:1" />
      <path
         inkscape:connector-curvature="0"
         id="path2894-6"
         d="m 690.75569,380.82683 -19.08217,8.42248"
         style="fill:none;stroke:#000000;stroke-width:2.25;stroke-linecap:butt;stroke-linejoin:miter;stroke-miterlimit:4;stroke-dasharray:none;stroke-opacity:1" />
      <path
         style="fill:none;stroke:#000000;stroke-width:2.25;stroke-linecap:butt;stroke-linejoin:miter;stroke-miterlimit:4;stroke-dasharray:none;stroke-opacity:1"
         d="m 690.75569,350.82431 -19.08217,8.42248"
         id="path1291"
         inkscape:connector-curvature="0" />
      <path
         style="fill:none;stroke:#000000;stroke-width:2.25;stroke-linecap:butt;stroke-linejoin:miter;stroke-miterlimit:4;stroke-dasharray:none;stroke-opacity:1"
         d="m 690.75569,388.32746 -19.08217,8.42248"
         id="path1293"
         inkscape:connector-curvature="0" />
      <path
         inkscape:connector-curvature="0"
         id="path1295"
         d="m 690.75569,395.82809 -19.08217,8.42248"
         style="fill:none;stroke:#000000;stroke-width:2.25;stroke-linecap:butt;stroke-linejoin:miter;stroke-miterlimit:4;stroke-dasharray:none;stroke-opacity:1" />
      <path
         inkscape:connector-curvature="0"
         id="path1210"
         d="M 671.67352,406.49902 V 356.07586"
         style="fill:none;stroke:#000000;stroke-width:3.04219;stroke-miterlimit:4;stroke-dasharray:none;stroke-opacity:1" />
      <path
         id="rect1356"
         style="fill:none;stroke:#000000;stroke-width:3.04219"
         d="m 577.24756,374.24805 h 94.42598 v 15.19472 h -94.42598 z" />
      <path
         style="fill:none;stroke:#000000;stroke-width:2.19844;stroke-miterlimit:4;stroke-dasharray:none;stroke-opacity:1;marker-end:url(#marker1373)"
         d="m 552.86451,360.28823 c 9.94322,0 18.00379,9.54542 18.00379,21.32028 0,11.77486 -9.00814,15.16109 -18.00379,21.32028"
         id="path1358"
         inkscape:connector-curvature="0"
         sodipodi:nodetypes="csc" />
      <path
         sodipodi:nodetypes="csc"
         inkscape:connector-curvature="0"
         id="path1789"
         d="m 532.23951,360.28823 c 9.94322,0 18.00379,9.54542 18.00379,21.32028 0,11.77486 -9.00814,15.16109 -18.00379,21.32028"
         style="fill:none;stroke:#000000;stroke-width:2.19844;stroke-miterlimit:4;stroke-dasharray:none;stroke-opacity:1;marker-end:url(#marker1793)" />
      <path
         d="m 563.29698,432.42943 q -2.9556,-1.32576 -4.46381,-4.19623 -1.50821,-2.88263 -1.50821,-7.20049 0,-4.33002 1.50821,-7.20049 1.50821,-2.88263 4.46381,-4.20839 v 1.19197 q -1.8731,1.28928 -2.68802,3.63674 -0.81492,2.33529 -0.81492,6.58017 0,4.23272 0.81492,6.58018 0.81492,2.33529 2.68802,3.62457 z"
         style="font-size:24.9098px;line-height:1.25;font-family:'DejaVu Serif';-inkscape-font-specification:'DejaVu Serif';letter-spacing:0px;word-spacing:0px;stroke-width:0.622746"
         id="path3194" />
      <path
         d="m 568.40544,416.92162 h -1.9704 l 0.25542,-1.30144 h 1.9704 l 0.77843,-4.01378 h 2.25016 l -0.77844,4.01378 h 4.2084 l -0.25542,1.30144 h -4.2084 l -1.59335,8.21002 q -0.18244,0.96087 -0.18244,1.52037 0,0.38922 0.0851,0.58383 0.23109,0.46219 1.0825,0.46219 0.87574,0 1.37442,-0.51085 0.51085,-0.523 0.75411,-1.67849 h 1.69065 q -0.43787,1.76363 -1.45956,2.57855 -1.02169,0.81493 -2.78532,0.81493 -1.93392,0 -2.57856,-0.86358 -0.38921,-0.52301 -0.38921,-1.49604 0,-0.62032 0.15812,-1.41091 z"
         style="font-style:italic;font-size:24.9098px;line-height:1.25;font-family:'DejaVu Serif';-inkscape-font-specification:'DejaVu Serif Italic';letter-spacing:0px;word-spacing:0px;stroke-width:0.622746"
         id="path3196" />
      <path
         d="m 576.84655,432.42943 v -1.19197 q 1.8731,-1.28928 2.68802,-3.62457 0.82709,-2.34746 0.82709,-6.58018 0,-4.24488 -0.82709,-6.58017 -0.81492,-2.34746 -2.68802,-3.63674 v -1.19197 q 2.96777,1.32576 4.47598,4.20839 1.50821,2.87047 1.50821,7.20049 0,4.31786 -1.50821,7.20049 -1.50821,2.87047 -4.47598,4.19623 z"
         style="font-size:24.9098px;line-height:1.25;font-family:'DejaVu Serif';-inkscape-font-specification:'DejaVu Serif';letter-spacing:0px;word-spacing:0px;stroke-width:0.622746"
         id="path3198" />
      <path
         d="m 555.92719,420.53066 q 0,4.69231 -1.25,7.34616 -1.25,2.65384 -3.46154,2.65384 -1.17308,0 -2.09616,-0.98077 -0.90384,-1 -1.26923,-2.80769 -0.53846,1.67308 -1.61538,2.65385 -1.07693,0.98077 -2.28846,0.98077 -1.78847,0 -3.19231,-2.32693 -1.40385,-2.34615 -1.40385,-7.01923 0,-3.32692 0.80769,-5.40384 0.8077,-2.09616 1.86539,-2.98077 1.05769,-0.90385 2.11538,-0.90385 l 0.19231,0.78846 q -1.25,1.94231 -1.40384,3.88462 -0.15385,1.94231 -0.15385,4.84615 0,3.38462 0.40385,5.38462 0.42307,1.98077 1.42307,1.98077 0.86539,0 1.61539,-1.19231 0.76923,-1.19231 0.84615,-2.36539 -0.73077,-1.59615 -0.73077,-2.82692 0,-0.78846 0.36539,-1.86538 0.36538,-1.09616 1.15384,-1.09616 0.59616,0 0.88462,1.11539 0.30769,1.09615 0.30769,1.84615 0,1.38462 -0.61538,2.82692 0,0.69231 0.34615,1.63462 0.34615,0.94231 0.88461,1.44231 0.5577,0.48077 1.17308,0.48077 0.55769,0 0.96154,-0.5577 0.42308,-0.55769 0.63462,-1.98076 0.21153,-1.44231 0.23076,-3.32693 0.0385,-1.90384 -0.13461,-3.46154 -0.15385,-1.57692 -0.44231,-2.82692 -0.26923,-1.25 -0.5,-2.30769 -0.23077,-1.07692 -0.63461,-1.63462 l 0.21153,-0.78846 q 1.36539,0 2.42308,1.17308 1.05769,1.15384 1.69231,3.19231 0.65385,2.01923 0.65385,4.42307 z"
         id="path3201"
         style="font-size:37.5px;line-height:1.25;font-family:Alfa-beta;-inkscape-font-specification:Alfa-beta;letter-spacing:0px;word-spacing:0px;stroke-width:0.9375" />
      <path
         d="m 466.31237,563.69897 v -1.28927 h 2.32313 v -15.42267 h -5.33955 v 2.83398 h -1.49605 v -4.28138 h 16.12812 v 4.28138 h -1.49604 v -2.83398 h -5.33956 v 15.42267 h 2.32313 v 1.28927 z"
         style="font-size:24.9098px;line-height:1.25;font-family:'DejaVu Serif';-inkscape-font-specification:'DejaVu Serif';letter-spacing:0px;word-spacing:0px;stroke-width:0.622746"
         id="path3204" />
      <path
         d="m 486.11371,567.57897 q -2.9556,-1.32577 -4.46381,-4.19623 -1.50821,-2.88263 -1.50821,-7.20049 0,-4.33003 1.50821,-7.20049 1.50821,-2.88263 4.46381,-4.20839 v 1.19197 q -1.8731,1.28927 -2.68802,3.63673 -0.81492,2.3353 -0.81492,6.58018 0,4.23272 0.81492,6.58017 0.81492,2.3353 2.68802,3.62457 z"
         style="font-size:24.9098px;line-height:1.25;font-family:'DejaVu Serif';-inkscape-font-specification:'DejaVu Serif';letter-spacing:0px;word-spacing:0px;stroke-width:0.622746"
         id="path3206" />
      <path
         d="m 491.22217,552.07116 h -1.97041 l 0.25543,-1.30144 h 1.9704 l 0.77843,-4.01379 h 2.25015 l -0.77843,4.01379 h 4.2084 l -0.25543,1.30144 h -4.20839 l -1.59335,8.21001 q -0.18245,0.96088 -0.18245,1.52038 0,0.38921 0.0851,0.58382 0.23109,0.4622 1.0825,0.4622 0.87574,0 1.37442,-0.51085 0.51084,-0.52301 0.7541,-1.67849 h 1.69066 q -0.43787,1.76363 -1.45956,2.57855 -1.02169,0.81492 -2.78532,0.81492 -1.93392,0 -2.57856,-0.86357 -0.38921,-0.52301 -0.38921,-1.49605 0,-0.62031 0.15812,-1.41091 z"
         style="font-style:italic;font-size:24.9098px;line-height:1.25;font-family:'DejaVu Serif';-inkscape-font-specification:'DejaVu Serif Italic';letter-spacing:0px;word-spacing:0px;stroke-width:0.622746"
         id="path3208" />
      <path
         d="m 499.66328,567.57897 v -1.19198 q 1.8731,-1.28927 2.68802,-3.62457 0.82709,-2.34745 0.82709,-6.58017 0,-4.24488 -0.82709,-6.58018 -0.81492,-2.34746 -2.68802,-3.63673 v -1.19197 q 2.96777,1.32576 4.47598,4.20839 1.50821,2.87046 1.50821,7.20049 0,4.31786 -1.50821,7.20049 -1.50821,2.87046 -4.47598,4.19623 z"
         style="font-size:24.9098px;line-height:1.25;font-family:'DejaVu Serif';-inkscape-font-specification:'DejaVu Serif';letter-spacing:0px;word-spacing:0px;stroke-width:0.622746"
         id="path3210" />
      <path
         d="m 510.25724,552.43605 h 15.59295 v 1.94608 h -15.59295 z m 0,4.9625 h 15.59295 v 1.94607 h -15.59295 z"
         style="font-size:24.9098px;line-height:1.25;font-family:'DejaVu Serif';-inkscape-font-specification:'DejaVu Serif';letter-spacing:0px;word-spacing:0px;stroke-width:0.622746"
         id="path3212" />
      <path
         d="m 529.86398,563.69897 v -1.28927 h 2.31097 v -15.56863 h -2.31097 v -1.30144 h 7.09102 v 1.30144 h -2.31097 v 6.87209 l 7.82081,-6.87209 h -1.97041 v -1.30144 h 6.03284 v 1.30144 h -2.04338 l -7.79647,6.84777 8.72086,8.72086 h 2.06771 v 1.28927 h -4.22056 l -8.6114,-8.62355 v 7.33428 h 2.31097 v 1.28927 z"
         style="font-size:24.9098px;line-height:1.25;font-family:'DejaVu Serif';-inkscape-font-specification:'DejaVu Serif';letter-spacing:0px;word-spacing:0px;stroke-width:0.622746"
         id="path3214" />
      <path
         d="m 578.79568,567.57897 q -2.95561,-1.32577 -4.46382,-4.19623 -1.50821,-2.88263 -1.50821,-7.20049 0,-4.33003 1.50821,-7.20049 1.50821,-2.88263 4.46382,-4.20839 v 1.19197 q -1.8731,1.28927 -2.68802,3.63673 -0.81492,2.3353 -0.81492,6.58018 0,4.23272 0.81492,6.58017 0.81492,2.3353 2.68802,3.62457 z"
         style="font-size:24.9098px;line-height:1.25;font-family:'DejaVu Serif';-inkscape-font-specification:'DejaVu Serif';letter-spacing:0px;word-spacing:0px;stroke-width:0.622746"
         id="path3216" />
      <path
         d="m 583.90414,552.07116 h -1.97041 l 0.25543,-1.30144 h 1.9704 l 0.77843,-4.01379 h 2.25016 l -0.77844,4.01379 h 4.2084 l -0.25542,1.30144 h -4.2084 l -1.59335,8.21001 q -0.18244,0.96088 -0.18244,1.52038 0,0.38921 0.0851,0.58382 0.23109,0.4622 1.0825,0.4622 0.87574,0 1.37442,-0.51085 0.51085,-0.52301 0.7541,-1.67849 h 1.69066 q -0.43787,1.76363 -1.45956,2.57855 -1.02169,0.81492 -2.78532,0.81492 -1.93392,0 -2.57856,-0.86357 -0.38921,-0.52301 -0.38921,-1.49605 0,-0.62031 0.15812,-1.41091 z"
         style="font-style:italic;font-size:24.9098px;line-height:1.25;font-family:'DejaVu Serif';-inkscape-font-specification:'DejaVu Serif Italic';letter-spacing:0px;word-spacing:0px;stroke-width:0.622746"
         id="path3218" />
      <path
         d="m 592.34525,567.57897 v -1.19198 q 1.8731,-1.28927 2.68802,-3.62457 0.82709,-2.34745 0.82709,-6.58017 0,-4.24488 -0.82709,-6.58018 -0.81492,-2.34746 -2.68802,-3.63673 v -1.19197 q 2.96777,1.32576 4.47598,4.20839 1.50821,2.87046 1.50821,7.20049 0,4.31786 -1.50821,7.20049 -1.50821,2.87046 -4.47598,4.19623 z"
         style="font-size:24.9098px;line-height:1.25;font-family:'DejaVu Serif';-inkscape-font-specification:'DejaVu Serif';letter-spacing:0px;word-spacing:0px;stroke-width:0.622746"
         id="path3220" />
      <path
         d="m 571.07647,555.05605 q 0,5.32693 -1.76923,9.09616 -1.76923,3.75 -6.38461,3.75 -3,0 -4.82693,-1.88462 -1.82692,-1.90384 -2.57692,-4.80769 -0.75,-2.90385 -0.75,-6.15385 0,-3.05769 0.80769,-6 0.82693,-2.9423 2.65385,-4.86538 1.82692,-1.94231 4.61538,-1.94231 1.96154,0 3.48077,0.94231 1.53846,0.94231 2.59616,2.67308 1.07692,1.71153 1.61538,4.07692 0.53846,2.34615 0.53846,5.11538 z m -3.88461,-0.9423 q 0,-3.96154 -0.98077,-6.98077 -0.98077,-3.01923 -3.28846,-3.01923 -2.28847,0 -3.25,3.03846 -0.96154,3.03846 -0.96154,6.96154 z m 0,2.11538 h -8.48077 q 0,3.92308 0.96154,6.98077 0.96153,3.03846 3.25,3.03846 2.30769,0 3.28846,-3.01923 0.98077,-3.03846 0.98077,-7 z"
         id="path3223"
         style="font-size:37.5px;line-height:1.25;font-family:Alfa-beta;-inkscape-font-specification:Alfa-beta;letter-spacing:0px;word-spacing:0px;stroke-width:0.9375" />
      <path
         d="m 622.64132,361.1824 v -1.28927 h 2.31097 V 344.3245 h -2.31097 v -1.30144 h 7.09103 v 1.30144 h -2.31097 v 6.87209 l 7.8208,-6.87209 h -1.9704 v -1.30144 h 6.03284 v 1.30144 h -2.04338 l -7.79648,6.84776 8.72086,8.72087 h 2.06771 v 1.28927 h -4.22056 l -8.61139,-8.62355 v 7.33428 h 2.31097 v 1.28927 z"
         style="font-size:24.9098px;line-height:1.25;font-family:'DejaVu Serif';-inkscape-font-specification:'DejaVu Serif';letter-spacing:0px;word-spacing:0px;stroke-width:0.622746"
         id="path3226" />
      <path
         d="m 582.45929,485.92568 q 0,4.69231 -1.25,7.34616 -1.25,2.65384 -3.46154,2.65384 -1.17308,0 -2.09615,-0.98077 -0.90385,-1 -1.26923,-2.80769 -0.53847,1.67308 -1.61539,2.65385 -1.07692,0.98077 -2.28846,0.98077 -1.78846,0 -3.19231,-2.32693 -1.40384,-2.34615 -1.40384,-7.01923 0,-3.32692 0.80769,-5.40384 0.80769,-2.09616 1.86538,-2.98077 1.0577,-0.90385 2.11539,-0.90385 l 0.19231,0.78846 q -1.25,1.94231 -1.40385,3.88462 -0.15385,1.94231 -0.15385,4.84615 0,3.38462 0.40385,5.38462 0.42308,1.98077 1.42308,1.98077 0.86538,0 1.61538,-1.19231 0.76923,-1.19231 0.84615,-2.36539 -0.73076,-1.59615 -0.73076,-2.82692 0,-0.78846 0.36538,-1.86538 0.36538,-1.09616 1.15385,-1.09616 0.59615,0 0.88461,1.11539 0.30769,1.09615 0.30769,1.84615 0,1.38462 -0.61538,2.82692 0,0.69231 0.34615,1.63462 0.34616,0.94231 0.88462,1.44231 0.55769,0.48077 1.17308,0.48077 0.55769,0 0.96153,-0.5577 0.42308,-0.55769 0.63462,-1.98077 0.21154,-1.4423 0.23077,-3.32692 0.0385,-1.90384 -0.13462,-3.46154 -0.15384,-1.57692 -0.4423,-2.82692 -0.26924,-1.25 -0.5,-2.30769 -0.23077,-1.07693 -0.63462,-1.63462 l 0.21154,-0.78846 q 1.36538,0 2.42308,1.17308 1.05769,1.15384 1.6923,3.19231 0.65385,2.01923 0.65385,4.42307 z"
         id="path3229"
         style="font-size:37.5px;line-height:1.25;font-family:Alfa-beta;-inkscape-font-specification:Alfa-beta;letter-spacing:0px;word-spacing:0px;stroke-width:0.9375" />
      <path
         d="m 463.13537,494.53925 v -1.28928 h 2.32313 V 477.8273 h -5.33955 v 2.83398 h -1.49605 v -4.28138 h 16.12812 v 4.28138 h -1.49605 v -2.83398 h -5.33955 v 15.42267 h 2.32313 v 1.28928 z"
         style="font-size:24.9098px;line-height:1.25;font-family:'DejaVu Serif';-inkscape-font-specification:'DejaVu Serif';letter-spacing:0px;word-spacing:0px;stroke-width:0.622746"
         id="path3232" />
      <path
         d="m 482.93671,498.41924 q -2.95561,-1.32577 -4.46382,-4.19623 -1.50821,-2.88263 -1.50821,-7.20049 0,-4.33002 1.50821,-7.20049 1.50821,-2.88263 4.46382,-4.20839 v 1.19197 q -1.8731,1.28928 -2.68802,3.63673 -0.81492,2.3353 -0.81492,6.58018 0,4.23272 0.81492,6.58018 0.81492,2.33529 2.68802,3.62457 z"
         style="font-size:24.9098px;line-height:1.25;font-family:'DejaVu Serif';-inkscape-font-specification:'DejaVu Serif';letter-spacing:0px;word-spacing:0px;stroke-width:0.622746"
         id="path3234" />
      <path
         d="m 488.04517,482.91143 h -1.97041 l 0.25542,-1.30144 h 1.97041 l 0.77843,-4.01379 h 2.25015 l -0.77843,4.01379 h 4.2084 l -0.25543,1.30144 h -4.20839 l -1.59335,8.21002 q -0.18245,0.96087 -0.18245,1.52037 0,0.38922 0.0851,0.58382 0.2311,0.4622 1.08251,0.4622 0.87573,0 1.37442,-0.51085 0.51084,-0.52301 0.7541,-1.67849 h 1.69066 q -0.43787,1.76363 -1.45956,2.57855 -1.02169,0.81492 -2.78533,0.81492 -1.93391,0 -2.57855,-0.86357 -0.38921,-0.52301 -0.38921,-1.49605 0,-0.62031 0.15811,-1.4109 z"
         style="font-style:italic;font-size:24.9098px;line-height:1.25;font-family:'DejaVu Serif';-inkscape-font-specification:'DejaVu Serif Italic';letter-spacing:0px;word-spacing:0px;stroke-width:0.622746"
         id="path3236" />
      <path
         d="m 496.48628,498.41924 v -1.19197 q 1.8731,-1.28928 2.68802,-3.62457 0.82709,-2.34746 0.82709,-6.58018 0,-4.24488 -0.82709,-6.58018 -0.81492,-2.34745 -2.68802,-3.63673 v -1.19197 q 2.96777,1.32576 4.47598,4.20839 1.50821,2.87047 1.50821,7.20049 0,4.31786 -1.50821,7.20049 -1.50821,2.87046 -4.47598,4.19623 z"
         style="font-size:24.9098px;line-height:1.25;font-family:'DejaVu Serif';-inkscape-font-specification:'DejaVu Serif';letter-spacing:0px;word-spacing:0px;stroke-width:0.622746"
         id="path3238" />
      <path
         d="m 507.08024,483.27632 h 15.59295 v 1.94608 h -15.59295 z m 0,4.9625 h 15.59295 v 1.94608 h -15.59295 z"
         style="font-size:24.9098px;line-height:1.25;font-family:'DejaVu Serif';-inkscape-font-specification:'DejaVu Serif';letter-spacing:0px;word-spacing:0px;stroke-width:0.622746"
         id="path3240" />
      <path
         d="m 526.68698,494.53925 v -1.28928 h 2.31097 v -15.56863 h -2.31097 v -1.30144 h 7.09102 v 1.30144 h -2.31097 v 6.87209 l 7.8208,-6.87209 h -1.9704 v -1.30144 h 6.03284 v 1.30144 h -2.04338 l -7.79648,6.84777 8.72087,8.72086 h 2.06771 v 1.28928 h -4.22056 l -8.6114,-8.62356 v 7.33428 h 2.31097 v 1.28928 z"
         style="font-size:24.9098px;line-height:1.25;font-family:'DejaVu Serif';-inkscape-font-specification:'DejaVu Serif';letter-spacing:0px;word-spacing:0px;stroke-width:0.622746"
         id="path3242" />
      <path
         d="m 591.45489,498.41924 q -2.95561,-1.32577 -4.46382,-4.19623 -1.50821,-2.88263 -1.50821,-7.20049 0,-4.33002 1.50821,-7.20049 1.50821,-2.88263 4.46382,-4.20839 v 1.19197 q -1.8731,1.28928 -2.68802,3.63673 -0.81492,2.3353 -0.81492,6.58018 0,4.23272 0.81492,6.58018 0.81492,2.33529 2.68802,3.62457 z"
         style="font-size:24.9098px;line-height:1.25;font-family:'DejaVu Serif';-inkscape-font-specification:'DejaVu Serif';letter-spacing:0px;word-spacing:0px;stroke-width:0.622746"
         id="path3244" />
      <path
         d="m 596.56334,482.91143 h -1.9704 l 0.25542,-1.30144 h 1.9704 l 0.77844,-4.01379 h 2.25015 l -0.77843,4.01379 h 4.20839 l -0.25542,1.30144 h -4.2084 l -1.59335,8.21002 q -0.18244,0.96087 -0.18244,1.52037 0,0.38922 0.0851,0.58382 0.2311,0.4622 1.0825,0.4622 0.87574,0 1.37442,-0.51085 0.51085,-0.52301 0.75411,-1.67849 h 1.69065 q -0.43786,1.76363 -1.45956,2.57855 -1.02169,0.81492 -2.78532,0.81492 -1.93392,0 -2.57855,-0.86357 -0.38922,-0.52301 -0.38922,-1.49605 0,-0.62031 0.15812,-1.4109 z"
         style="font-style:italic;font-size:24.9098px;line-height:1.25;font-family:'DejaVu Serif';-inkscape-font-specification:'DejaVu Serif Italic';letter-spacing:0px;word-spacing:0px;stroke-width:0.622746"
         id="path3246" />
      <path
         d="m 605.00446,498.41924 v -1.19197 q 1.8731,-1.28928 2.68802,-3.62457 0.82709,-2.34746 0.82709,-6.58018 0,-4.24488 -0.82709,-6.58018 -0.81492,-2.34745 -2.68802,-3.63673 v -1.19197 q 2.96777,1.32576 4.47598,4.20839 1.50821,2.87047 1.50821,7.20049 0,4.31786 -1.50821,7.20049 -1.50821,2.87046 -4.47598,4.19623 z"
         style="font-size:24.9098px;line-height:1.25;font-family:'DejaVu Serif';-inkscape-font-specification:'DejaVu Serif';letter-spacing:0px;word-spacing:0px;stroke-width:0.622746"
         id="path3248" />
      <path
         d="m 635.82546,475.61364 -3.67322,18.92561 h -2.23799 l 0.38922,-2.01906 q -0.90006,1.2163 -2.03122,1.80012 -1.119,0.57166 -2.61504,0.57166 -2.38395,0 -3.52727,-1.88526 -0.76627,-1.25279 -0.76627,-3.00426 0,-0.90006 0.20677,-1.93391 0.59599,-3.04075 2.46909,-4.92601 1.8731,-1.88527 4.26921,-1.88527 1.49604,0 2.39611,0.58383 0.90006,0.57166 1.32576,1.78796 l 1.30144,-6.72614 h -2.11636 l 0.25542,-1.28927 z m -4.78005,13.09953 0.24326,-1.27711 q 0.18244,-0.94871 0.18244,-1.71498 0,-1.10683 -0.38921,-1.83661 -0.64464,-1.22846 -2.34746,-1.22846 -1.72714,0 -2.88263,1.36225 -1.14332,1.36226 -1.66633,4.05028 -0.24326,1.22846 -0.24326,2.17717 0,1.13116 0.34057,1.8731 0.60815,1.37442 2.33529,1.37442 1.70282,0 2.83398,-1.2163 1.13116,-1.22846 1.59335,-3.56376 z"
         style="font-style:italic;font-size:24.9098px;line-height:1.25;font-family:'DejaVu Serif';-inkscape-font-specification:'DejaVu Serif Italic';letter-spacing:0px;word-spacing:0px;stroke-width:0.622746"
         id="path3250" />
      <path
         d="m 640.15549,482.91143 h -1.97041 l 0.25543,-1.30144 h 1.9704 l 0.77843,-4.01379 h 2.25016 l -0.77844,4.01379 h 4.2084 l -0.25542,1.30144 h -4.2084 l -1.59335,8.21002 q -0.18244,0.96087 -0.18244,1.52037 0,0.38922 0.0851,0.58382 0.23109,0.4622 1.0825,0.4622 0.87574,0 1.37442,-0.51085 0.51085,-0.52301 0.75411,-1.67849 h 1.69065 q -0.43787,1.76363 -1.45956,2.57855 -1.02169,0.81492 -2.78532,0.81492 -1.93392,0 -2.57856,-0.86357 -0.38921,-0.52301 -0.38921,-1.49605 0,-0.62031 0.15812,-1.4109 z"
         style="font-style:italic;font-size:24.9098px;line-height:1.25;font-family:'DejaVu Serif';-inkscape-font-specification:'DejaVu Serif Italic';letter-spacing:0px;word-spacing:0px;stroke-width:0.622746"
         id="path3252" />
      <path
         d="m 666.15997,478.92197 v 6.82344 h 6.82343 v 1.9704 h -6.82343 v 6.82344 h -1.94608 v -6.82344 h -6.82344 v -1.9704 h 6.82344 v -6.82344 z"
         style="font-size:24.9098px;line-height:1.25;font-family:'DejaVu Serif';-inkscape-font-specification:'DejaVu Serif';letter-spacing:0px;word-spacing:0px;stroke-width:0.622746"
         id="path3254" />
      <path
         d="m 688.29661,494.53925 v -1.28928 h 2.32313 V 477.8273 h -5.33955 v 2.83398 h -1.49605 v -4.28138 h 16.12812 v 4.28138 h -1.49605 v -2.83398 h -5.33955 v 15.42267 h 2.32313 v 1.28928 z"
         style="font-size:24.9098px;line-height:1.25;font-family:'DejaVu Serif';-inkscape-font-specification:'DejaVu Serif';letter-spacing:0px;word-spacing:0px;stroke-width:0.622746"
         id="path3256" />
      <path
         d="m 708.09795,498.41924 q -2.95561,-1.32577 -4.46382,-4.19623 -1.50821,-2.88263 -1.50821,-7.20049 0,-4.33002 1.50821,-7.20049 1.50821,-2.88263 4.46382,-4.20839 v 1.19197 q -1.8731,1.28928 -2.68802,3.63673 -0.81492,2.3353 -0.81492,6.58018 0,4.23272 0.81492,6.58018 0.81492,2.33529 2.68802,3.62457 z"
         style="font-size:24.9098px;line-height:1.25;font-family:'DejaVu Serif';-inkscape-font-specification:'DejaVu Serif';letter-spacing:0px;word-spacing:0px;stroke-width:0.622746"
         id="path3258" />
      <path
         d="m 717.79184,493.68784 q 1.86094,0 2.78532,-2.04339 0.92439,-2.04338 0.92439,-6.16663 0,-4.13542 -0.92439,-6.1788 -0.92438,-2.04338 -2.78532,-2.04338 -1.86094,0 -2.78533,2.04338 -0.92438,2.04338 -0.92438,6.1788 0,4.12325 0.92438,6.16663 0.92439,2.04339 2.78533,2.04339 z m 0,1.20413 q -2.95561,0 -4.62194,-2.48125 -1.65416,-2.48125 -1.65416,-6.9329 0,-4.46382 1.65416,-6.94507 1.66633,-2.48125 4.62194,-2.48125 2.96777,0 4.62193,2.48125 1.65417,2.48125 1.65417,6.94507 0,4.45165 -1.65417,6.9329 -1.65416,2.48125 -4.62193,2.48125 z"
         style="font-size:24.9098px;line-height:1.25;font-family:'DejaVu Serif';-inkscape-font-specification:'DejaVu Serif';letter-spacing:0px;word-spacing:0px;stroke-width:0.622746"
         id="path3260" />
      <path
         d="m 727.48574,498.41924 v -1.19197 q 1.8731,-1.28928 2.68802,-3.62457 0.82708,-2.34746 0.82708,-6.58018 0,-4.24488 -0.82708,-6.58018 -0.81492,-2.34745 -2.68802,-3.63673 v -1.19197 q 2.96777,1.32576 4.47598,4.20839 1.50821,2.87047 1.50821,7.20049 0,4.31786 -1.50821,7.20049 -1.50821,2.87046 -4.47598,4.19623 z"
         style="font-size:24.9098px;line-height:1.25;font-family:'DejaVu Serif';-inkscape-font-specification:'DejaVu Serif';letter-spacing:0px;word-spacing:0px;stroke-width:0.622746"
         id="path3262" />
      <path
         d="m 568.54675,455.89233 h -1.38427 l 0.17944,-0.9143 h 1.38428 l 0.54687,-2.81983 h 1.58081 l -0.54687,2.81983 h 2.95654 l -0.17944,0.9143 h -2.95655 l -1.11938,5.76783 q -0.12818,0.67505 -0.12818,1.06811 0,0.27344 0.0598,0.41016 0.16235,0.3247 0.7605,0.3247 0.61523,0 0.96557,-0.35888 0.35889,-0.36743 0.52979,-1.1792 h 1.18774 q -0.30761,1.23901 -1.02539,1.81152 -0.71777,0.57251 -1.95678,0.57251 -1.35865,0 -1.81153,-0.60669 -0.27344,-0.36743 -0.27344,-1.05102 0,-0.43579 0.11109,-0.99121 z"
         style="font-style:italic;font-size:17.5px;line-height:1.25;font-family:'DejaVu Serif';-inkscape-font-specification:'DejaVu Serif Italic';letter-spacing:0px;word-spacing:0px;stroke-width:0.622746"
         id="path3265" />
      <path
         d="m 557.65546,521.05164 q 1.30737,0 1.95678,-1.43555 0.64942,-1.43555 0.64942,-4.33228 0,-2.90527 -0.64942,-4.34082 -0.64941,-1.43554 -1.95678,-1.43554 -1.30738,0 -1.95679,1.43554 -0.64941,1.43555 -0.64941,4.34082 0,2.89673 0.64941,4.33228 0.64941,1.43555 1.95679,1.43555 z m 0,0.84594 q -2.07642,0 -3.24707,-1.74316 -1.16211,-1.74317 -1.16211,-4.87061 0,-3.13598 1.16211,-4.87915 1.17065,-1.74316 3.24707,-1.74316 2.08496,0 3.24707,1.74316 1.16211,1.74317 1.16211,4.87915 0,3.12744 -1.16211,4.87061 -1.16211,1.74316 -3.24707,1.74316 z"
         style="font-size:17.5px;line-height:1.25;font-family:'DejaVu Serif';-inkscape-font-specification:'DejaVu Serif';letter-spacing:0px;word-spacing:0px;stroke-width:0.622746"
         id="path3268" />
      <path
         d="m 543.0068,514.86732 q 0.67013,0.67013 1.64248,0.67013 0.97235,0 1.77388,-1.34027 0.80153,-1.32712 1.40597,-3.32438 0.60443,-1.99725 0.88036,-3.35066 0.28908,-1.34026 0.70956,-3.46891 0.38105,-1.98412 0.73583,-3.98138 0.35477,-1.99725 0.72269,-4.25731 0.38105,-2.24691 0.78839,-4.57266 0.42047,-2.31261 0.94607,-4.92744 0.70955,-3.44264 1.01177,-4.92745 0.31535,-1.47166 0.94607,-4.27044 0.63071,-2.78565 0.82781,-3.67916 0.21023,-0.88037 1.16944,-4.8486 l 0.35478,-1.40597 q 0.60443,-2.36517 0.93293,-3.58717 0.32849,-1.20887 1.01176,-2.96961 0.69642,-1.7476 1.62934,-2.9696 0.93293,-1.20887 2.04982,-1.20887 0.78839,0 1.45852,0.35478 0.68328,0.35477 1.10375,0.97235 0.42048,0.61757 0.42048,1.4191 0,0.57815 -0.38106,0.95921 -0.38106,0.38105 -0.95921,0.38105 -0.59129,0 -0.98549,-0.38105 -0.39419,-0.38106 -0.39419,-0.95921 0,-0.59129 0.39419,-0.98549 0.3942,-0.3942 0.98549,-0.3942 -0.69641,-0.67013 -1.6162,-0.67013 -0.49931,0 -1.10375,1.45853 -0.59129,1.45852 -1.10374,3.42949 -0.49932,1.98412 -0.77525,3.29811 -0.2628,1.32712 -0.64386,3.31124 -0.44675,2.24691 -0.74897,3.91567 -0.28907,1.66876 -0.70955,4.12591 -0.42047,2.45715 -0.82781,4.67778 -0.39419,2.22064 -0.94607,5.00629 -0.35477,1.76073 -1.02491,4.94058 -0.67013,3.19298 -0.89351,4.15219 -0.21023,0.95921 -1.10374,4.69092 -0.88037,3.73172 -0.93293,3.95509 l -0.3285,1.23515 q -0.69641,2.85135 -1.40596,5.00628 -0.69641,2.16807 -2.06296,4.03393 -1.3534,1.86586 -3.31124,1.86586 -1.16944,0 -2.07609,-0.78839 -0.90665,-0.78839 -0.90665,-1.93156 0,-0.59129 0.39419,-0.98549 0.3942,-0.39419 0.97235,-0.39419 0.38106,0 0.68327,0.18396 0.31536,0.18395 0.48618,0.49931 0.18396,0.31536 0.18396,0.69641 0,0.57816 -0.3942,0.95921 -0.39419,0.38106 -0.98549,0.38106 z"
         id="path3271"
         style="font-size:26.9104px;line-height:1.25;font-family:cmex10;-inkscape-font-specification:cmex10;stroke-width:0.630713" />
    </g>
  </g>
</svg>
